{
  "__inputs": [

  ],
  "__requires": [

  ],
  "annotations": {
    "list": [

    ]
  },
  "description": "Uploaded by https://gitlab.com/gitlab-com/runbooks/-/jobs/4019720365 at Tue Mar 28 23:13:39 UTC 2023",
  "editable": true,
  "gnetId": null,
  "graphTooltip": 1,
  "hideControls": false,
  "id": null,
  "links": [

  ],
  "panels": [
    {
      "columns": [

      ],
      "datasource": "$PROMETHEUS_DS",
      "description": "This panel shows how much the deployment pipeline duration was increased by the need to retry failed jobs. For example,\nif a failed job is retried and succeeds after an hour of the failure, the deployment pipeline duration was increased by an hour.",
      "gridPos": {
        "h": 8,
        "w": 24,
        "x": 0,
        "y": 0
      },
      "id": 2,
      "links": [

      ],
      "sort": {
        "col": 1,
        "desc": true
      },
      "styles": [
        {
          "decimals": 0,
          "mappingType": 1,
          "pattern": "Value",
          "type": "number",
          "unit": "m"
        }
      ],
      "targets": [
        {
          "expr": "sum by(job_name)(increase(delivery_webhooks_auto_deploy_job_failure_lost_seconds[$__range]) != 0)",
          "format": "table",
          "instant": true,
          "interval": "1m",
          "intervalFactor": 3,
          "legendFormat": "",
          "refId": "A"
        }
      ],
      "timeFrom": null,
      "timeShift": null,
      "title": "Increase in deployment pipeline duration due to retry of failed jobs",
      "transformations": [
        {
          "id": "organize",
          "options": {
            "excludeByName": {
              "Time": true
            }
          }
        }
      ],
      "type": "table"
    },
    {
      "collapse": false,
      "collapsed": false,
      "gridPos": {
        "h": 1,
        "w": 24,
        "x": 0,
        "y": 100
      },
      "id": 3,
      "panels": [

      ],
      "repeat": null,
      "repeatIteration": null,
      "repeatRowId": null,
      "showTitle": true,
      "title": "Auto Deploy Job Retries",
      "titleSize": "h6",
      "type": "row"
    },
    {
      "columns": [

      ],
      "datasource": "$PROMETHEUS_DS",
      "description": "This table shows the number of auto-deploy job retries per project for the duration chosen. For further insight, refer to the 'Number of auto-deploy retries per job' table, which separates the retries by job name",
      "fieldConfig": {
        "overrides": [
          {
            "matcher": {
              "id": "byName",
              "options": "Value"
            },
            "properties": [
              {
                "id": "decimals",
                "value": 0
              }
            ]
          }
        ]
      },
      "gridPos": {
        "h": 8,
        "w": 12,
        "x": 0,
        "y": 101
      },
      "id": 4,
      "links": [

      ],
      "sort": 4,
      "styles": null,
      "targets": [
        {
          "expr": "sort_desc(sum(increase(delivery_webhooks_auto_deploy_job_retries[$__range])) by (project) != 0)",
          "format": "table",
          "instant": true,
          "interval": "1m",
          "intervalFactor": 3,
          "legendFormat": "",
          "refId": "A"
        }
      ],
      "timeFrom": null,
      "timeShift": null,
      "title": "🔄 Number of auto-deploy job retries per Project 🔄",
      "transformations": [
        {
          "id": "organize",
          "options": {
            "excludeByName": {
              "Time": true
            },
            "renameByName": {
              "Value": "Total Retries",
              "project": "Project"
            }
          }
        }
      ],
      "type": "table"
    },
    {
      "columns": [

      ],
      "datasource": "$PROMETHEUS_DS",
      "description": "This table shows the number of auto-deploy job retries per project and per job for the duration chosen.",
      "fieldConfig": {
        "overrides": [
          {
            "matcher": {
              "id": "byName",
              "options": "Value"
            },
            "properties": [
              {
                "id": "decimals",
                "value": 0
              }
            ]
          }
        ]
      },
      "gridPos": {
        "h": 8,
        "w": 12,
        "x": 12,
        "y": 101
      },
      "id": 5,
      "links": [

      ],
      "sort": 4,
      "styles": [
        {
          "decimals": 0,
          "mappingType": 1,
          "pattern": "Value",
          "type": "number"
        }
      ],
      "targets": [
        {
          "expr": "sort_desc(sum(increase(delivery_webhooks_auto_deploy_job_retries[$__range])) by (project, job_name) != 0)",
          "format": "table",
          "instant": true,
          "interval": "1m",
          "intervalFactor": 3,
          "legendFormat": "",
          "refId": "A"
        }
      ],
      "timeFrom": null,
      "timeShift": null,
      "title": "🔄 Number of auto-deploy retries per job 🔄",
      "transformations": [
        {
          "id": "organize",
          "options": {
            "excludeByName": {
              "Time": true
            },
            "renameByName": {
              "Value": "Total Retries",
              "job_name": "Job Name",
              "project": "Project"
            }
          }
        }
      ],
      "type": "table"
    },
    {
      "collapse": false,
      "collapsed": false,
      "gridPos": {
        "h": 1,
        "w": 24,
        "x": 0,
        "y": 200
      },
      "id": 6,
      "panels": [

      ],
      "repeat": null,
      "repeatIteration": null,
      "repeatRowId": null,
      "showTitle": true,
      "title": "Tagged Releases",
      "titleSize": "h6",
      "type": "row"
    },
    {
      "columns": [

      ],
      "datasource": "$PROMETHEUS_DS",
      "description": "",
      "fieldConfig": {
        "overrides": [
          {
            "matcher": {
              "id": "byName",
              "options": "Release Type"
            },
            "properties": [
              {
                "id": "mappings",
                "value": [
                  {
                    "options": {
                      "auto_deploy,": {
                        "text": "Auto Deploy (deprecated)"
                      },
                      "auto_deploy,no": {
                        "text": "Auto Deploy"
                      },
                      "monthly,no": {
                        "text": "Monthly"
                      },
                      "patch,critical": {
                        "text": "Critical Security Patch"
                      },
                      "patch,no": {
                        "text": "Regular Patch"
                      },
                      "patch,regular": {
                        "text": "Regular Security Patch"
                      },
                      "rc,no": {
                        "text": "RC"
                      }
                    },
                    "type": "value"
                  }
                ]
              }
            ]
          },
          {
            "matcher": {
              "id": "byName",
              "options": "Value"
            },
            "properties": [
              {
                "id": "decimals",
                "value": 0
              }
            ]
          }
        ]
      },
      "gridPos": {
        "h": 10,
        "w": 24,
        "x": 0,
        "y": 201
      },
      "id": 7,
      "links": [

      ],
      "styles": null,
      "targets": [
        {
          "expr": "sort_desc(sum(increase(delivery_packages_tagging_total[$__range])) by (pkg_type,security))",
          "format": "table",
          "instant": true,
          "interval": "1m",
          "intervalFactor": 3,
          "legendFormat": "",
          "refId": "A"
        }
      ],
      "timeFrom": null,
      "timeShift": null,
      "title": "🚀 Number of Tagged Releases by Type 🚀",
      "transformations": [
        {
          "alias": "Release Type",
          "binary": {
            "left": "pkg_type",
            "reducer": "sum",
            "right": "security"
          },
          "id": "calculateField",
          "mode": "reduceRow",
          "options": {
            "alias": "Release Type",
            "mode": "reduceRow",
            "reduce": {
              "include": [
                "pkg_type",
                "security"
              ],
              "reducer": "allValues"
            },
            "replaceFields": false
          },
          "reduce": {
            "include": [
              "pkg_type",
              "security"
            ],
            "reducer": "allValues"
          }
        },
        {
          "id": "organize",
          "options": {
            "excludeByName": {
              "Time": true,
              "pkg_type": true,
              "security": true
            },
            "indexByName": {
              "Release Type": 0,
              "Time": 2,
              "Value": 1,
              "pkg_type": 3,
              "security": 4
            }
          }
        },
        {
          "id": "filterByValue",
          "options": {
            "filters": [
              {
                "config": {
                  "id": "regex",
                  "options": {
                    "value": "^auto_deploy,(?!$|no$).*"
                  }
                },
                "fieldName": "Release Type"
              },
              {
                "config": {
                  "id": "regex",
                  "options": {
                    "value": "^monthly,(?!no$).*"
                  }
                },
                "fieldName": "Release Type"
              },
              {
                "config": {
                  "id": "regex",
                  "options": {
                    "value": "^rc,(?!no$).*"
                  }
                },
                "fieldName": "Release Type"
              },
              {
                "config": {
                  "id": "regex",
                  "options": {
                    "value": "^security,(?!$).*"
                  }
                },
                "fieldName": "Release Type"
              }
            ],
            "match": "any",
            "type": "exclude"
          }
        }
      ],
      "type": "table"
    },
    {
      "content": "Made with ❤️ and [Grafonnet](https://github.com/grafana/grafonnet-lib). [Contribute to this dashboard on GitLab.com](https://gitlab.com/gitlab-com/runbooks/blob/master/dashboards)\n",
      "datasource": null,
      "gridPos": {
        "h": 2,
        "w": 24,
        "x": 0,
        "y": 110000
      },
      "id": 8,
      "mode": "markdown",
      "title": "Source",
      "type": "text"
    }
  ],
  "refresh": "",
  "rows": [

  ],
  "schemaVersion": 16,
  "style": "light",
  "tags": [
    "managed",
    "delivery",
    "release"
  ],
  "templating": {
    "list": [
      {
        "current": {
          "text": "Global",
          "value": "Global"
        },
        "hide": 0,
        "label": null,
        "name": "PROMETHEUS_DS",
        "options": [

        ],
        "query": "prometheus",
        "refresh": 1,
        "regex": "",
        "type": "datasource"
      }
    ]
  },
  "time": {
    "from": "now-7d",
    "to": "now"
  },
  "timepicker": {
    "refresh_intervals": [
      "1m",
      "5m",
      "10m",
      "15m",
      "30m"
    ],
    "time_options": [
      "5m",
      "15m",
      "1h",
      "6h",
      "12h",
      "24h",
      "2d",
      "7d",
      "30d"
    ]
  },
  "timezone": "utc",
  "title": "delivery: Release Management Toil",
  "uid": "delivery-release_management_toil",
  "version": 186
}