{
  "__inputs": [

  ],
  "__requires": [

  ],
  "annotations": {
    "list": [
      {
        "builtIn": 1,
        "datasource": "-- Grafana --",
        "enable": false,
        "hide": false,
        "iconColor": "#96D98D",
        "name": "deploy",
        "showIn": 0,
        "tags": [
          "deploy",
          "$environment"
        ],
        "type": "tags"
      },
      {
        "builtIn": 1,
        "datasource": "-- Grafana --",
        "enable": false,
        "hide": false,
        "iconColor": "#FFEE52",
        "name": "canary-deploy",
        "showIn": 0,
        "tags": [
          "deploy",
          "${environment}-cny"
        ],
        "type": "tags"
      },
      {
        "builtIn": 1,
        "datasource": "-- Grafana --",
        "enable": false,
        "hide": false,
        "iconColor": "#CA95E5",
        "name": "feature-flags",
        "showIn": 0,
        "tags": [
          "feature-flag",
          "${environment}"
        ],
        "type": "tags"
      }
    ]
  },
  "description": "Uploaded by https://gitlab.com/gitlab-com/runbooks/-/jobs/4019720365 at Tue Mar 28 23:13:26 UTC 2023",
  "editable": false,
  "gnetId": null,
  "graphTooltip": 2,
  "hideControls": false,
  "id": null,
  "links": [

  ],
  "panels": [
    {
      "aliasColors": {
      },
      "bars": false,
      "dashLength": 10,
      "dashes": false,
      "datasource": "$PROMETHEUS_DS",
      "decimals": 0,
      "description": "Lower is better.",
      "fill": 0,
      "fillGradient": 0,
      "gridPos": {
        "h": 13,
        "w": 24,
        "x": 0,
        "y": 0
      },
      "id": 2,
      "legend": {
        "alignAsTable": true,
        "avg": true,
        "current": true,
        "hideEmpty": true,
        "max": true,
        "min": true,
        "rightSide": false,
        "show": true,
        "sideWidth": null,
        "total": false,
        "values": true
      },
      "lines": true,
      "linewidth": 2,
      "links": [

      ],
      "nullPointMode": "null",
      "percentage": false,
      "pointradius": 5,
      "points": false,
      "renderer": "flot",
      "repeat": null,
      "seriesOverrides": [

      ],
      "spaceLength": 10,
      "stack": false,
      "steppedLine": false,
      "targets": [
        {
          "expr": "histogram_quantile(0.50, sum(rate(github_importer_total_duration_seconds_bucket{env=\"$environment\"}[$__interval])) by (le, environment))",
          "format": "time_series",
          "interval": "1m",
          "intervalFactor": 3,
          "legendFormat": "p50",
          "refId": "A"
        },
        {
          "expr": "histogram_quantile(0.90, sum(rate(github_importer_total_duration_seconds_bucket{env=\"$environment\"}[$__interval])) by (le, environment))",
          "format": "time_series",
          "interval": "1m",
          "intervalFactor": 3,
          "legendFormat": "p90",
          "refId": "B"
        },
        {
          "expr": "histogram_quantile(0.95, sum(rate(github_importer_total_duration_seconds_bucket{env=\"$environment\"}[$__interval])) by (le, environment))",
          "format": "time_series",
          "interval": "1m",
          "intervalFactor": 3,
          "legendFormat": "p95",
          "refId": "C"
        },
        {
          "expr": "histogram_quantile(0.99, sum(rate(github_importer_total_duration_seconds_bucket{env=\"$environment\"}[$__interval])) by (le, environment))",
          "format": "time_series",
          "interval": "1m",
          "intervalFactor": 3,
          "legendFormat": "p99",
          "refId": "D"
        }
      ],
      "thresholds": [

      ],
      "timeFrom": null,
      "timeShift": null,
      "title": "Import Duration",
      "tooltip": {
        "shared": true,
        "sort": 2,
        "value_type": "individual"
      },
      "type": "graph",
      "xaxis": {
        "buckets": null,
        "mode": "time",
        "name": null,
        "show": true,
        "values": [

        ]
      },
      "yaxes": [
        {
          "format": "s",
          "label": "Duration",
          "logBase": 1,
          "max": null,
          "min": 0,
          "show": true
        },
        {
          "format": "short",
          "label": null,
          "logBase": 1,
          "max": 1,
          "min": 0,
          "show": false
        }
      ]
    },
    {
      "aliasColors": {
      },
      "bars": false,
      "dashLength": 10,
      "dashes": false,
      "datasource": "$PROMETHEUS_DS",
      "decimals": 0,
      "description": "",
      "fill": 0,
      "fillGradient": 0,
      "gridPos": {
        "h": 10,
        "w": 24,
        "x": 0,
        "y": 1
      },
      "id": 3,
      "legend": {
        "alignAsTable": true,
        "avg": true,
        "current": false,
        "hideEmpty": true,
        "max": false,
        "min": false,
        "rightSide": false,
        "show": true,
        "sideWidth": null,
        "total": true,
        "values": true
      },
      "lines": true,
      "linewidth": 1,
      "links": [

      ],
      "nullPointMode": "null",
      "percentage": false,
      "pointradius": 5,
      "points": false,
      "renderer": "flot",
      "repeat": null,
      "seriesOverrides": [

      ],
      "spaceLength": 10,
      "stack": false,
      "steppedLine": false,
      "targets": [
        {
          "expr": "(sum(github_importer_imported_projects_total) or vector(0))",
          "format": "time_series",
          "interval": "1m",
          "intervalFactor": 3,
          "legendFormat": "Projects successfully imported",
          "refId": "A"
        }
      ],
      "thresholds": [

      ],
      "timeFrom": null,
      "timeShift": null,
      "title": "Projects successfully imported",
      "tooltip": {
        "shared": true,
        "sort": "desc",
        "value_type": "individual"
      },
      "type": "graph",
      "xaxis": {
        "buckets": null,
        "mode": "time",
        "name": null,
        "show": true,
        "values": [

        ]
      },
      "yaxes": [
        {
          "decimals": 0,
          "format": "short",
          "label": null,
          "logBase": 1,
          "max": null,
          "min": null,
          "show": true
        },
        {
          "decimals": 0,
          "format": "short",
          "label": null,
          "logBase": 1,
          "max": null,
          "min": null,
          "show": true
        }
      ]
    },
    {
      "aliasColors": {
      },
      "bars": false,
      "dashLength": 10,
      "dashes": false,
      "datasource": "$PROMETHEUS_DS",
      "decimals": 0,
      "description": "",
      "fill": 0,
      "fillGradient": 0,
      "gridPos": {
        "h": 10,
        "w": 24,
        "x": 0,
        "y": 11
      },
      "id": 4,
      "legend": {
        "alignAsTable": true,
        "avg": true,
        "current": false,
        "hideEmpty": true,
        "max": false,
        "min": false,
        "rightSide": false,
        "show": true,
        "sideWidth": null,
        "total": true,
        "values": true
      },
      "lines": true,
      "linewidth": 1,
      "links": [

      ],
      "nullPointMode": "null",
      "percentage": false,
      "pointradius": 5,
      "points": false,
      "renderer": "flot",
      "repeat": null,
      "seriesOverrides": [
        {
          "alias": "/fetched.*/",
          "color": "#3274D9"
        },
        {
          "alias": "/imported.*/",
          "color": "#37872D"
        },
        {
          "alias": "diff",
          "color": "#E02F44"
        }
      ],
      "spaceLength": 10,
      "stack": false,
      "steppedLine": false,
      "targets": [
        {
          "expr": "((sum(rate(github_importer_fetched_issue{env=\"$environment\"}[$__interval])) or vector(0)) + (sum(rate(github_importer_fetched_pull_request{env=\"$environment\"}[$__interval])) or vector(0)) + (sum(rate(github_importer_fetched_pull_request_merged_by{env=\"$environment\"}[$__interval])) or vector(0)) + (sum(rate(github_importer_fetched_pull_request_review{env=\"$environment\"}[$__interval])) or vector(0)) + (sum(rate(github_importer_fetched_milestone{env=\"$environment\"}[$__interval])) or vector(0)) + (sum(rate(github_importer_fetched_note{env=\"$environment\"}[$__interval])) or vector(0)) + (sum(rate(github_importer_fetched_diff_note{env=\"$environment\"}[$__interval])) or vector(0)) + (sum(rate(github_importer_fetched_label{env=\"$environment\"}[$__interval])) or vector(0)) + (sum(rate(github_importer_fetched_lfs_object{env=\"$environment\"}[$__interval])) or vector(0)) + (sum(rate(github_importer_fetched_release{env=\"$environment\"}[$__interval])) or vector(0))) * 3600",
          "format": "time_series",
          "interval": "1m",
          "intervalFactor": 3,
          "legendFormat": "fetched",
          "refId": "A"
        },
        {
          "expr": "((sum(rate(github_importer_imported_issue{env=\"$environment\"}[$__interval])) or vector(0)) + (sum(rate(github_importer_imported_pull_request{env=\"$environment\"}[$__interval])) or vector(0)) + (sum(rate(github_importer_imported_pull_request_merged_by{env=\"$environment\"}[$__interval])) or vector(0)) + (sum(rate(github_importer_imported_pull_request_review{env=\"$environment\"}[$__interval])) or vector(0)) + (sum(rate(github_importer_imported_milestone{env=\"$environment\"}[$__interval])) or vector(0)) + (sum(rate(github_importer_imported_note{env=\"$environment\"}[$__interval])) or vector(0)) + (sum(rate(github_importer_imported_diff_note{env=\"$environment\"}[$__interval])) or vector(0)) + (sum(rate(github_importer_imported_label{env=\"$environment\"}[$__interval])) or vector(0)) + (sum(rate(github_importer_imported_lfs_object{env=\"$environment\"}[$__interval])) or vector(0)) + (sum(rate(github_importer_imported_release{env=\"$environment\"}[$__interval])) or vector(0))) * 3600",
          "format": "time_series",
          "interval": "1m",
          "intervalFactor": 3,
          "legendFormat": "imported",
          "refId": "B"
        },
        {
          "expr": "((((sum(rate(github_importer_fetched_issue{env=\"$environment\"}[$__interval])) or vector(0)) + (sum(rate(github_importer_fetched_pull_request{env=\"$environment\"}[$__interval])) or vector(0)) + (sum(rate(github_importer_fetched_pull_request_merged_by{env=\"$environment\"}[$__interval])) or vector(0)) + (sum(rate(github_importer_fetched_pull_request_review{env=\"$environment\"}[$__interval])) or vector(0)) + (sum(rate(github_importer_fetched_milestone{env=\"$environment\"}[$__interval])) or vector(0)) + (sum(rate(github_importer_fetched_note{env=\"$environment\"}[$__interval])) or vector(0)) + (sum(rate(github_importer_fetched_diff_note{env=\"$environment\"}[$__interval])) or vector(0)) + (sum(rate(github_importer_fetched_label{env=\"$environment\"}[$__interval])) or vector(0)) + (sum(rate(github_importer_fetched_lfs_object{env=\"$environment\"}[$__interval])) or vector(0)) + (sum(rate(github_importer_fetched_release{env=\"$environment\"}[$__interval])) or vector(0))) - ((sum(rate(github_importer_imported_issue{env=\"$environment\"}[$__interval])) or vector(0)) + (sum(rate(github_importer_imported_pull_request{env=\"$environment\"}[$__interval])) or vector(0)) + (sum(rate(github_importer_imported_pull_request_merged_by{env=\"$environment\"}[$__interval])) or vector(0)) + (sum(rate(github_importer_imported_pull_request_review{env=\"$environment\"}[$__interval])) or vector(0)) + (sum(rate(github_importer_imported_milestone{env=\"$environment\"}[$__interval])) or vector(0)) + (sum(rate(github_importer_imported_note{env=\"$environment\"}[$__interval])) or vector(0)) + (sum(rate(github_importer_imported_diff_note{env=\"$environment\"}[$__interval])) or vector(0)) + (sum(rate(github_importer_imported_label{env=\"$environment\"}[$__interval])) or vector(0)) + (sum(rate(github_importer_imported_lfs_object{env=\"$environment\"}[$__interval])) or vector(0)) + (sum(rate(github_importer_imported_release{env=\"$environment\"}[$__interval])) or vector(0)))) * 3600) or vector(0)",
          "format": "time_series",
          "interval": "1m",
          "intervalFactor": 3,
          "legendFormat": "diff",
          "refId": "C"
        }
      ],
      "thresholds": [

      ],
      "timeFrom": null,
      "timeShift": null,
      "title": "Total Objects",
      "tooltip": {
        "shared": true,
        "sort": "desc",
        "value_type": "individual"
      },
      "type": "graph",
      "xaxis": {
        "buckets": null,
        "mode": "time",
        "name": null,
        "show": true,
        "values": [

        ]
      },
      "yaxes": [
        {
          "decimals": 0,
          "format": "short",
          "label": null,
          "logBase": 1,
          "max": null,
          "min": null,
          "show": true
        },
        {
          "decimals": 0,
          "format": "short",
          "label": null,
          "logBase": 1,
          "max": null,
          "min": null,
          "show": true
        }
      ]
    },
    {
      "aliasColors": {
      },
      "bars": false,
      "dashLength": 10,
      "dashes": false,
      "datasource": "$PROMETHEUS_DS",
      "decimals": 0,
      "description": "",
      "fill": 0,
      "fillGradient": 0,
      "gridPos": {
        "h": 10,
        "w": 12,
        "x": 0,
        "y": 3
      },
      "id": 5,
      "legend": {
        "alignAsTable": true,
        "avg": true,
        "current": false,
        "hideEmpty": true,
        "max": false,
        "min": false,
        "rightSide": false,
        "show": true,
        "sideWidth": null,
        "total": true,
        "values": true
      },
      "lines": true,
      "linewidth": 1,
      "links": [

      ],
      "nullPointMode": "null",
      "percentage": false,
      "pointradius": 5,
      "points": false,
      "renderer": "flot",
      "repeat": null,
      "seriesOverrides": [
        {
          "alias": "/fetched.*/",
          "color": "#3274D9"
        },
        {
          "alias": "/imported.*/",
          "color": "#37872D"
        },
        {
          "alias": "diff",
          "color": "#E02F44"
        }
      ],
      "spaceLength": 10,
      "stack": false,
      "steppedLine": false,
      "targets": [
        {
          "expr": "(sum(rate(github_importer_fetched_issue{env=\"$environment\"}[$__interval])) or vector(0)) * 3600",
          "format": "time_series",
          "interval": "1m",
          "intervalFactor": 3,
          "legendFormat": "fetched issue",
          "refId": "A"
        },
        {
          "expr": "(sum(rate(github_importer_imported_issue{env=\"$environment\"}[$__interval])) or vector(0)) * 3600",
          "format": "time_series",
          "interval": "1m",
          "intervalFactor": 3,
          "legendFormat": "imported issue",
          "refId": "B"
        },
        {
          "expr": "((((sum(rate(github_importer_fetched_issue{env=\"$environment\"}[$__interval])) or vector(0))) - ((sum(rate(github_importer_imported_issue{env=\"$environment\"}[$__interval])) or vector(0)))) * 3600) or vector(0)",
          "format": "time_series",
          "interval": "1m",
          "intervalFactor": 3,
          "legendFormat": "diff",
          "refId": "C"
        }
      ],
      "thresholds": [

      ],
      "timeFrom": null,
      "timeShift": null,
      "title": "issue",
      "tooltip": {
        "shared": true,
        "sort": "desc",
        "value_type": "individual"
      },
      "type": "graph",
      "xaxis": {
        "buckets": null,
        "mode": "time",
        "name": null,
        "show": true,
        "values": [

        ]
      },
      "yaxes": [
        {
          "decimals": 0,
          "format": "short",
          "label": null,
          "logBase": 1,
          "max": null,
          "min": null,
          "show": true
        },
        {
          "decimals": 0,
          "format": "short",
          "label": null,
          "logBase": 1,
          "max": null,
          "min": null,
          "show": true
        }
      ]
    },
    {
      "aliasColors": {
      },
      "bars": false,
      "dashLength": 10,
      "dashes": false,
      "datasource": "$PROMETHEUS_DS",
      "decimals": 0,
      "description": "",
      "fill": 0,
      "fillGradient": 0,
      "gridPos": {
        "h": 10,
        "w": 12,
        "x": 12,
        "y": 3
      },
      "id": 6,
      "legend": {
        "alignAsTable": true,
        "avg": true,
        "current": false,
        "hideEmpty": true,
        "max": false,
        "min": false,
        "rightSide": false,
        "show": true,
        "sideWidth": null,
        "total": true,
        "values": true
      },
      "lines": true,
      "linewidth": 1,
      "links": [

      ],
      "nullPointMode": "null",
      "percentage": false,
      "pointradius": 5,
      "points": false,
      "renderer": "flot",
      "repeat": null,
      "seriesOverrides": [
        {
          "alias": "/fetched.*/",
          "color": "#3274D9"
        },
        {
          "alias": "/imported.*/",
          "color": "#37872D"
        },
        {
          "alias": "diff",
          "color": "#E02F44"
        }
      ],
      "spaceLength": 10,
      "stack": false,
      "steppedLine": false,
      "targets": [
        {
          "expr": "(sum(rate(github_importer_fetched_pull_request{env=\"$environment\"}[$__interval])) or vector(0)) * 3600",
          "format": "time_series",
          "interval": "1m",
          "intervalFactor": 3,
          "legendFormat": "fetched pull_request",
          "refId": "A"
        },
        {
          "expr": "(sum(rate(github_importer_imported_pull_request{env=\"$environment\"}[$__interval])) or vector(0)) * 3600",
          "format": "time_series",
          "interval": "1m",
          "intervalFactor": 3,
          "legendFormat": "imported pull_request",
          "refId": "B"
        },
        {
          "expr": "((((sum(rate(github_importer_fetched_pull_request{env=\"$environment\"}[$__interval])) or vector(0))) - ((sum(rate(github_importer_imported_pull_request{env=\"$environment\"}[$__interval])) or vector(0)))) * 3600) or vector(0)",
          "format": "time_series",
          "interval": "1m",
          "intervalFactor": 3,
          "legendFormat": "diff",
          "refId": "C"
        }
      ],
      "thresholds": [

      ],
      "timeFrom": null,
      "timeShift": null,
      "title": "pull_request",
      "tooltip": {
        "shared": true,
        "sort": "desc",
        "value_type": "individual"
      },
      "type": "graph",
      "xaxis": {
        "buckets": null,
        "mode": "time",
        "name": null,
        "show": true,
        "values": [

        ]
      },
      "yaxes": [
        {
          "decimals": 0,
          "format": "short",
          "label": null,
          "logBase": 1,
          "max": null,
          "min": null,
          "show": true
        },
        {
          "decimals": 0,
          "format": "short",
          "label": null,
          "logBase": 1,
          "max": null,
          "min": null,
          "show": true
        }
      ]
    },
    {
      "aliasColors": {
      },
      "bars": false,
      "dashLength": 10,
      "dashes": false,
      "datasource": "$PROMETHEUS_DS",
      "decimals": 0,
      "description": "",
      "fill": 0,
      "fillGradient": 0,
      "gridPos": {
        "h": 10,
        "w": 12,
        "x": 0,
        "y": 13
      },
      "id": 7,
      "legend": {
        "alignAsTable": true,
        "avg": true,
        "current": false,
        "hideEmpty": true,
        "max": false,
        "min": false,
        "rightSide": false,
        "show": true,
        "sideWidth": null,
        "total": true,
        "values": true
      },
      "lines": true,
      "linewidth": 1,
      "links": [

      ],
      "nullPointMode": "null",
      "percentage": false,
      "pointradius": 5,
      "points": false,
      "renderer": "flot",
      "repeat": null,
      "seriesOverrides": [
        {
          "alias": "/fetched.*/",
          "color": "#3274D9"
        },
        {
          "alias": "/imported.*/",
          "color": "#37872D"
        },
        {
          "alias": "diff",
          "color": "#E02F44"
        }
      ],
      "spaceLength": 10,
      "stack": false,
      "steppedLine": false,
      "targets": [
        {
          "expr": "(sum(rate(github_importer_fetched_pull_request_merged_by{env=\"$environment\"}[$__interval])) or vector(0)) * 3600",
          "format": "time_series",
          "interval": "1m",
          "intervalFactor": 3,
          "legendFormat": "fetched pull_request_merged_by",
          "refId": "A"
        },
        {
          "expr": "(sum(rate(github_importer_imported_pull_request_merged_by{env=\"$environment\"}[$__interval])) or vector(0)) * 3600",
          "format": "time_series",
          "interval": "1m",
          "intervalFactor": 3,
          "legendFormat": "imported pull_request_merged_by",
          "refId": "B"
        },
        {
          "expr": "((((sum(rate(github_importer_fetched_pull_request_merged_by{env=\"$environment\"}[$__interval])) or vector(0))) - ((sum(rate(github_importer_imported_pull_request_merged_by{env=\"$environment\"}[$__interval])) or vector(0)))) * 3600) or vector(0)",
          "format": "time_series",
          "interval": "1m",
          "intervalFactor": 3,
          "legendFormat": "diff",
          "refId": "C"
        }
      ],
      "thresholds": [

      ],
      "timeFrom": null,
      "timeShift": null,
      "title": "pull_request_merged_by",
      "tooltip": {
        "shared": true,
        "sort": "desc",
        "value_type": "individual"
      },
      "type": "graph",
      "xaxis": {
        "buckets": null,
        "mode": "time",
        "name": null,
        "show": true,
        "values": [

        ]
      },
      "yaxes": [
        {
          "decimals": 0,
          "format": "short",
          "label": null,
          "logBase": 1,
          "max": null,
          "min": null,
          "show": true
        },
        {
          "decimals": 0,
          "format": "short",
          "label": null,
          "logBase": 1,
          "max": null,
          "min": null,
          "show": true
        }
      ]
    },
    {
      "aliasColors": {
      },
      "bars": false,
      "dashLength": 10,
      "dashes": false,
      "datasource": "$PROMETHEUS_DS",
      "decimals": 0,
      "description": "",
      "fill": 0,
      "fillGradient": 0,
      "gridPos": {
        "h": 10,
        "w": 12,
        "x": 12,
        "y": 13
      },
      "id": 8,
      "legend": {
        "alignAsTable": true,
        "avg": true,
        "current": false,
        "hideEmpty": true,
        "max": false,
        "min": false,
        "rightSide": false,
        "show": true,
        "sideWidth": null,
        "total": true,
        "values": true
      },
      "lines": true,
      "linewidth": 1,
      "links": [

      ],
      "nullPointMode": "null",
      "percentage": false,
      "pointradius": 5,
      "points": false,
      "renderer": "flot",
      "repeat": null,
      "seriesOverrides": [
        {
          "alias": "/fetched.*/",
          "color": "#3274D9"
        },
        {
          "alias": "/imported.*/",
          "color": "#37872D"
        },
        {
          "alias": "diff",
          "color": "#E02F44"
        }
      ],
      "spaceLength": 10,
      "stack": false,
      "steppedLine": false,
      "targets": [
        {
          "expr": "(sum(rate(github_importer_fetched_pull_request_review{env=\"$environment\"}[$__interval])) or vector(0)) * 3600",
          "format": "time_series",
          "interval": "1m",
          "intervalFactor": 3,
          "legendFormat": "fetched pull_request_review",
          "refId": "A"
        },
        {
          "expr": "(sum(rate(github_importer_imported_pull_request_review{env=\"$environment\"}[$__interval])) or vector(0)) * 3600",
          "format": "time_series",
          "interval": "1m",
          "intervalFactor": 3,
          "legendFormat": "imported pull_request_review",
          "refId": "B"
        },
        {
          "expr": "((((sum(rate(github_importer_fetched_pull_request_review{env=\"$environment\"}[$__interval])) or vector(0))) - ((sum(rate(github_importer_imported_pull_request_review{env=\"$environment\"}[$__interval])) or vector(0)))) * 3600) or vector(0)",
          "format": "time_series",
          "interval": "1m",
          "intervalFactor": 3,
          "legendFormat": "diff",
          "refId": "C"
        }
      ],
      "thresholds": [

      ],
      "timeFrom": null,
      "timeShift": null,
      "title": "pull_request_review",
      "tooltip": {
        "shared": true,
        "sort": "desc",
        "value_type": "individual"
      },
      "type": "graph",
      "xaxis": {
        "buckets": null,
        "mode": "time",
        "name": null,
        "show": true,
        "values": [

        ]
      },
      "yaxes": [
        {
          "decimals": 0,
          "format": "short",
          "label": null,
          "logBase": 1,
          "max": null,
          "min": null,
          "show": true
        },
        {
          "decimals": 0,
          "format": "short",
          "label": null,
          "logBase": 1,
          "max": null,
          "min": null,
          "show": true
        }
      ]
    },
    {
      "aliasColors": {
      },
      "bars": false,
      "dashLength": 10,
      "dashes": false,
      "datasource": "$PROMETHEUS_DS",
      "decimals": 0,
      "description": "",
      "fill": 0,
      "fillGradient": 0,
      "gridPos": {
        "h": 10,
        "w": 12,
        "x": 0,
        "y": 23
      },
      "id": 9,
      "legend": {
        "alignAsTable": true,
        "avg": true,
        "current": false,
        "hideEmpty": true,
        "max": false,
        "min": false,
        "rightSide": false,
        "show": true,
        "sideWidth": null,
        "total": true,
        "values": true
      },
      "lines": true,
      "linewidth": 1,
      "links": [

      ],
      "nullPointMode": "null",
      "percentage": false,
      "pointradius": 5,
      "points": false,
      "renderer": "flot",
      "repeat": null,
      "seriesOverrides": [
        {
          "alias": "/fetched.*/",
          "color": "#3274D9"
        },
        {
          "alias": "/imported.*/",
          "color": "#37872D"
        },
        {
          "alias": "diff",
          "color": "#E02F44"
        }
      ],
      "spaceLength": 10,
      "stack": false,
      "steppedLine": false,
      "targets": [
        {
          "expr": "(sum(rate(github_importer_fetched_milestone{env=\"$environment\"}[$__interval])) or vector(0)) * 3600",
          "format": "time_series",
          "interval": "1m",
          "intervalFactor": 3,
          "legendFormat": "fetched milestone",
          "refId": "A"
        },
        {
          "expr": "(sum(rate(github_importer_imported_milestone{env=\"$environment\"}[$__interval])) or vector(0)) * 3600",
          "format": "time_series",
          "interval": "1m",
          "intervalFactor": 3,
          "legendFormat": "imported milestone",
          "refId": "B"
        },
        {
          "expr": "((((sum(rate(github_importer_fetched_milestone{env=\"$environment\"}[$__interval])) or vector(0))) - ((sum(rate(github_importer_imported_milestone{env=\"$environment\"}[$__interval])) or vector(0)))) * 3600) or vector(0)",
          "format": "time_series",
          "interval": "1m",
          "intervalFactor": 3,
          "legendFormat": "diff",
          "refId": "C"
        }
      ],
      "thresholds": [

      ],
      "timeFrom": null,
      "timeShift": null,
      "title": "milestone",
      "tooltip": {
        "shared": true,
        "sort": "desc",
        "value_type": "individual"
      },
      "type": "graph",
      "xaxis": {
        "buckets": null,
        "mode": "time",
        "name": null,
        "show": true,
        "values": [

        ]
      },
      "yaxes": [
        {
          "decimals": 0,
          "format": "short",
          "label": null,
          "logBase": 1,
          "max": null,
          "min": null,
          "show": true
        },
        {
          "decimals": 0,
          "format": "short",
          "label": null,
          "logBase": 1,
          "max": null,
          "min": null,
          "show": true
        }
      ]
    },
    {
      "aliasColors": {
      },
      "bars": false,
      "dashLength": 10,
      "dashes": false,
      "datasource": "$PROMETHEUS_DS",
      "decimals": 0,
      "description": "",
      "fill": 0,
      "fillGradient": 0,
      "gridPos": {
        "h": 10,
        "w": 12,
        "x": 12,
        "y": 23
      },
      "id": 10,
      "legend": {
        "alignAsTable": true,
        "avg": true,
        "current": false,
        "hideEmpty": true,
        "max": false,
        "min": false,
        "rightSide": false,
        "show": true,
        "sideWidth": null,
        "total": true,
        "values": true
      },
      "lines": true,
      "linewidth": 1,
      "links": [

      ],
      "nullPointMode": "null",
      "percentage": false,
      "pointradius": 5,
      "points": false,
      "renderer": "flot",
      "repeat": null,
      "seriesOverrides": [
        {
          "alias": "/fetched.*/",
          "color": "#3274D9"
        },
        {
          "alias": "/imported.*/",
          "color": "#37872D"
        },
        {
          "alias": "diff",
          "color": "#E02F44"
        }
      ],
      "spaceLength": 10,
      "stack": false,
      "steppedLine": false,
      "targets": [
        {
          "expr": "(sum(rate(github_importer_fetched_note{env=\"$environment\"}[$__interval])) or vector(0)) * 3600",
          "format": "time_series",
          "interval": "1m",
          "intervalFactor": 3,
          "legendFormat": "fetched note",
          "refId": "A"
        },
        {
          "expr": "(sum(rate(github_importer_imported_note{env=\"$environment\"}[$__interval])) or vector(0)) * 3600",
          "format": "time_series",
          "interval": "1m",
          "intervalFactor": 3,
          "legendFormat": "imported note",
          "refId": "B"
        },
        {
          "expr": "((((sum(rate(github_importer_fetched_note{env=\"$environment\"}[$__interval])) or vector(0))) - ((sum(rate(github_importer_imported_note{env=\"$environment\"}[$__interval])) or vector(0)))) * 3600) or vector(0)",
          "format": "time_series",
          "interval": "1m",
          "intervalFactor": 3,
          "legendFormat": "diff",
          "refId": "C"
        }
      ],
      "thresholds": [

      ],
      "timeFrom": null,
      "timeShift": null,
      "title": "note",
      "tooltip": {
        "shared": true,
        "sort": "desc",
        "value_type": "individual"
      },
      "type": "graph",
      "xaxis": {
        "buckets": null,
        "mode": "time",
        "name": null,
        "show": true,
        "values": [

        ]
      },
      "yaxes": [
        {
          "decimals": 0,
          "format": "short",
          "label": null,
          "logBase": 1,
          "max": null,
          "min": null,
          "show": true
        },
        {
          "decimals": 0,
          "format": "short",
          "label": null,
          "logBase": 1,
          "max": null,
          "min": null,
          "show": true
        }
      ]
    },
    {
      "aliasColors": {
      },
      "bars": false,
      "dashLength": 10,
      "dashes": false,
      "datasource": "$PROMETHEUS_DS",
      "decimals": 0,
      "description": "",
      "fill": 0,
      "fillGradient": 0,
      "gridPos": {
        "h": 10,
        "w": 12,
        "x": 0,
        "y": 33
      },
      "id": 11,
      "legend": {
        "alignAsTable": true,
        "avg": true,
        "current": false,
        "hideEmpty": true,
        "max": false,
        "min": false,
        "rightSide": false,
        "show": true,
        "sideWidth": null,
        "total": true,
        "values": true
      },
      "lines": true,
      "linewidth": 1,
      "links": [

      ],
      "nullPointMode": "null",
      "percentage": false,
      "pointradius": 5,
      "points": false,
      "renderer": "flot",
      "repeat": null,
      "seriesOverrides": [
        {
          "alias": "/fetched.*/",
          "color": "#3274D9"
        },
        {
          "alias": "/imported.*/",
          "color": "#37872D"
        },
        {
          "alias": "diff",
          "color": "#E02F44"
        }
      ],
      "spaceLength": 10,
      "stack": false,
      "steppedLine": false,
      "targets": [
        {
          "expr": "(sum(rate(github_importer_fetched_diff_note{env=\"$environment\"}[$__interval])) or vector(0)) * 3600",
          "format": "time_series",
          "interval": "1m",
          "intervalFactor": 3,
          "legendFormat": "fetched diff_note",
          "refId": "A"
        },
        {
          "expr": "(sum(rate(github_importer_imported_diff_note{env=\"$environment\"}[$__interval])) or vector(0)) * 3600",
          "format": "time_series",
          "interval": "1m",
          "intervalFactor": 3,
          "legendFormat": "imported diff_note",
          "refId": "B"
        },
        {
          "expr": "((((sum(rate(github_importer_fetched_diff_note{env=\"$environment\"}[$__interval])) or vector(0))) - ((sum(rate(github_importer_imported_diff_note{env=\"$environment\"}[$__interval])) or vector(0)))) * 3600) or vector(0)",
          "format": "time_series",
          "interval": "1m",
          "intervalFactor": 3,
          "legendFormat": "diff",
          "refId": "C"
        }
      ],
      "thresholds": [

      ],
      "timeFrom": null,
      "timeShift": null,
      "title": "diff_note",
      "tooltip": {
        "shared": true,
        "sort": "desc",
        "value_type": "individual"
      },
      "type": "graph",
      "xaxis": {
        "buckets": null,
        "mode": "time",
        "name": null,
        "show": true,
        "values": [

        ]
      },
      "yaxes": [
        {
          "decimals": 0,
          "format": "short",
          "label": null,
          "logBase": 1,
          "max": null,
          "min": null,
          "show": true
        },
        {
          "decimals": 0,
          "format": "short",
          "label": null,
          "logBase": 1,
          "max": null,
          "min": null,
          "show": true
        }
      ]
    },
    {
      "aliasColors": {
      },
      "bars": false,
      "dashLength": 10,
      "dashes": false,
      "datasource": "$PROMETHEUS_DS",
      "decimals": 0,
      "description": "",
      "fill": 0,
      "fillGradient": 0,
      "gridPos": {
        "h": 10,
        "w": 12,
        "x": 12,
        "y": 33
      },
      "id": 12,
      "legend": {
        "alignAsTable": true,
        "avg": true,
        "current": false,
        "hideEmpty": true,
        "max": false,
        "min": false,
        "rightSide": false,
        "show": true,
        "sideWidth": null,
        "total": true,
        "values": true
      },
      "lines": true,
      "linewidth": 1,
      "links": [

      ],
      "nullPointMode": "null",
      "percentage": false,
      "pointradius": 5,
      "points": false,
      "renderer": "flot",
      "repeat": null,
      "seriesOverrides": [
        {
          "alias": "/fetched.*/",
          "color": "#3274D9"
        },
        {
          "alias": "/imported.*/",
          "color": "#37872D"
        },
        {
          "alias": "diff",
          "color": "#E02F44"
        }
      ],
      "spaceLength": 10,
      "stack": false,
      "steppedLine": false,
      "targets": [
        {
          "expr": "(sum(rate(github_importer_fetched_label{env=\"$environment\"}[$__interval])) or vector(0)) * 3600",
          "format": "time_series",
          "interval": "1m",
          "intervalFactor": 3,
          "legendFormat": "fetched label",
          "refId": "A"
        },
        {
          "expr": "(sum(rate(github_importer_imported_label{env=\"$environment\"}[$__interval])) or vector(0)) * 3600",
          "format": "time_series",
          "interval": "1m",
          "intervalFactor": 3,
          "legendFormat": "imported label",
          "refId": "B"
        },
        {
          "expr": "((((sum(rate(github_importer_fetched_label{env=\"$environment\"}[$__interval])) or vector(0))) - ((sum(rate(github_importer_imported_label{env=\"$environment\"}[$__interval])) or vector(0)))) * 3600) or vector(0)",
          "format": "time_series",
          "interval": "1m",
          "intervalFactor": 3,
          "legendFormat": "diff",
          "refId": "C"
        }
      ],
      "thresholds": [

      ],
      "timeFrom": null,
      "timeShift": null,
      "title": "label",
      "tooltip": {
        "shared": true,
        "sort": "desc",
        "value_type": "individual"
      },
      "type": "graph",
      "xaxis": {
        "buckets": null,
        "mode": "time",
        "name": null,
        "show": true,
        "values": [

        ]
      },
      "yaxes": [
        {
          "decimals": 0,
          "format": "short",
          "label": null,
          "logBase": 1,
          "max": null,
          "min": null,
          "show": true
        },
        {
          "decimals": 0,
          "format": "short",
          "label": null,
          "logBase": 1,
          "max": null,
          "min": null,
          "show": true
        }
      ]
    },
    {
      "aliasColors": {
      },
      "bars": false,
      "dashLength": 10,
      "dashes": false,
      "datasource": "$PROMETHEUS_DS",
      "decimals": 0,
      "description": "",
      "fill": 0,
      "fillGradient": 0,
      "gridPos": {
        "h": 10,
        "w": 12,
        "x": 0,
        "y": 43
      },
      "id": 13,
      "legend": {
        "alignAsTable": true,
        "avg": true,
        "current": false,
        "hideEmpty": true,
        "max": false,
        "min": false,
        "rightSide": false,
        "show": true,
        "sideWidth": null,
        "total": true,
        "values": true
      },
      "lines": true,
      "linewidth": 1,
      "links": [

      ],
      "nullPointMode": "null",
      "percentage": false,
      "pointradius": 5,
      "points": false,
      "renderer": "flot",
      "repeat": null,
      "seriesOverrides": [
        {
          "alias": "/fetched.*/",
          "color": "#3274D9"
        },
        {
          "alias": "/imported.*/",
          "color": "#37872D"
        },
        {
          "alias": "diff",
          "color": "#E02F44"
        }
      ],
      "spaceLength": 10,
      "stack": false,
      "steppedLine": false,
      "targets": [
        {
          "expr": "(sum(rate(github_importer_fetched_lfs_object{env=\"$environment\"}[$__interval])) or vector(0)) * 3600",
          "format": "time_series",
          "interval": "1m",
          "intervalFactor": 3,
          "legendFormat": "fetched lfs_object",
          "refId": "A"
        },
        {
          "expr": "(sum(rate(github_importer_imported_lfs_object{env=\"$environment\"}[$__interval])) or vector(0)) * 3600",
          "format": "time_series",
          "interval": "1m",
          "intervalFactor": 3,
          "legendFormat": "imported lfs_object",
          "refId": "B"
        },
        {
          "expr": "((((sum(rate(github_importer_fetched_lfs_object{env=\"$environment\"}[$__interval])) or vector(0))) - ((sum(rate(github_importer_imported_lfs_object{env=\"$environment\"}[$__interval])) or vector(0)))) * 3600) or vector(0)",
          "format": "time_series",
          "interval": "1m",
          "intervalFactor": 3,
          "legendFormat": "diff",
          "refId": "C"
        }
      ],
      "thresholds": [

      ],
      "timeFrom": null,
      "timeShift": null,
      "title": "lfs_object",
      "tooltip": {
        "shared": true,
        "sort": "desc",
        "value_type": "individual"
      },
      "type": "graph",
      "xaxis": {
        "buckets": null,
        "mode": "time",
        "name": null,
        "show": true,
        "values": [

        ]
      },
      "yaxes": [
        {
          "decimals": 0,
          "format": "short",
          "label": null,
          "logBase": 1,
          "max": null,
          "min": null,
          "show": true
        },
        {
          "decimals": 0,
          "format": "short",
          "label": null,
          "logBase": 1,
          "max": null,
          "min": null,
          "show": true
        }
      ]
    },
    {
      "aliasColors": {
      },
      "bars": false,
      "dashLength": 10,
      "dashes": false,
      "datasource": "$PROMETHEUS_DS",
      "decimals": 0,
      "description": "",
      "fill": 0,
      "fillGradient": 0,
      "gridPos": {
        "h": 10,
        "w": 12,
        "x": 12,
        "y": 43
      },
      "id": 14,
      "legend": {
        "alignAsTable": true,
        "avg": true,
        "current": false,
        "hideEmpty": true,
        "max": false,
        "min": false,
        "rightSide": false,
        "show": true,
        "sideWidth": null,
        "total": true,
        "values": true
      },
      "lines": true,
      "linewidth": 1,
      "links": [

      ],
      "nullPointMode": "null",
      "percentage": false,
      "pointradius": 5,
      "points": false,
      "renderer": "flot",
      "repeat": null,
      "seriesOverrides": [
        {
          "alias": "/fetched.*/",
          "color": "#3274D9"
        },
        {
          "alias": "/imported.*/",
          "color": "#37872D"
        },
        {
          "alias": "diff",
          "color": "#E02F44"
        }
      ],
      "spaceLength": 10,
      "stack": false,
      "steppedLine": false,
      "targets": [
        {
          "expr": "(sum(rate(github_importer_fetched_release{env=\"$environment\"}[$__interval])) or vector(0)) * 3600",
          "format": "time_series",
          "interval": "1m",
          "intervalFactor": 3,
          "legendFormat": "fetched release",
          "refId": "A"
        },
        {
          "expr": "(sum(rate(github_importer_imported_release{env=\"$environment\"}[$__interval])) or vector(0)) * 3600",
          "format": "time_series",
          "interval": "1m",
          "intervalFactor": 3,
          "legendFormat": "imported release",
          "refId": "B"
        },
        {
          "expr": "((((sum(rate(github_importer_fetched_release{env=\"$environment\"}[$__interval])) or vector(0))) - ((sum(rate(github_importer_imported_release{env=\"$environment\"}[$__interval])) or vector(0)))) * 3600) or vector(0)",
          "format": "time_series",
          "interval": "1m",
          "intervalFactor": 3,
          "legendFormat": "diff",
          "refId": "C"
        }
      ],
      "thresholds": [

      ],
      "timeFrom": null,
      "timeShift": null,
      "title": "release",
      "tooltip": {
        "shared": true,
        "sort": "desc",
        "value_type": "individual"
      },
      "type": "graph",
      "xaxis": {
        "buckets": null,
        "mode": "time",
        "name": null,
        "show": true,
        "values": [

        ]
      },
      "yaxes": [
        {
          "decimals": 0,
          "format": "short",
          "label": null,
          "logBase": 1,
          "max": null,
          "min": null,
          "show": true
        },
        {
          "decimals": 0,
          "format": "short",
          "label": null,
          "logBase": 1,
          "max": null,
          "min": null,
          "show": true
        }
      ]
    }
  ],
  "refresh": "",
  "rows": [

  ],
  "schemaVersion": 16,
  "style": "light",
  "tags": [
    "managed",
    "importers",
    "sidekiq",
    "managed",
    "group:import"
  ],
  "templating": {
    "list": [
      {
        "current": {
          "text": "Global",
          "value": "Global"
        },
        "hide": 0,
        "label": null,
        "name": "PROMETHEUS_DS",
        "options": [

        ],
        "query": "prometheus",
        "refresh": 1,
        "regex": "",
        "type": "datasource"
      },
      {
        "allValue": null,
        "current": {
          "text": "gprd",
          "value": "gprd"
        },
        "datasource": "$PROMETHEUS_DS",
        "hide": 0,
        "includeAll": false,
        "label": null,
        "multi": false,
        "name": "environment",
        "options": [

        ],
        "query": "label_values(gitlab_service_ops:rate, environment)",
        "refresh": 1,
        "regex": "",
        "sort": 1,
        "tagValuesQuery": "",
        "tags": [

        ],
        "tagsQuery": "",
        "type": "query",
        "useTags": false
      }
    ]
  },
  "time": {
    "from": "now-6h/m",
    "to": "now/m"
  },
  "timepicker": {
    "refresh_intervals": [
      "1m",
      "5m",
      "10m",
      "15m",
      "30m"
    ],
    "time_options": [
      "5m",
      "15m",
      "1h",
      "6h",
      "12h",
      "24h",
      "2d",
      "7d",
      "30d"
    ]
  },
  "timezone": "utc",
  "title": "importers: Github Importer",
  "uid": "importers-github-importer",
  "version": 1654
}